<svg xmlns="http://www.w3.org/2000/svg" width="168" height="36.121" viewBox="0 0 168 36.121">
    <defs>
        <style>.a{fill:#2c8f0d;}.b{fill:#72ac0d;}.c{fill:#a7d000;}.d{fill:#fff;}</style>
    </defs>
    <g transform="translate(-139.247 -457.712)">
        <rect class="a" width="3.352" height="3.352" transform="translate(139.247 467.06)"/>
        <rect class="a" width="3.352" height="3.352" transform="translate(139.247 471.734)"/>
        <rect class="a" width="3.352" height="3.352" transform="translate(139.247 476.408)"/>
        <rect class="a" width="3.352" height="3.352" transform="translate(139.247 481.082)"/>
        <rect class="b" width="3.352" height="3.352" transform="translate(156.621 457.712) rotate(90)"/>
        <rect class="a" width="3.352" height="3.352" transform="translate(151.947 457.712) rotate(90)"/>
        <rect class="c" width="3.352" height="3.352" transform="translate(161.295 462.386) rotate(90)"/>
        <rect class="b" width="3.352" height="3.352" transform="translate(156.621 462.386) rotate(90)"/>
        <rect class="b" width="3.352" height="3.352" transform="translate(151.947 462.386) rotate(90)"/>
        <rect class="a" width="3.352" height="3.352" transform="translate(147.273 462.386) rotate(90)"/>
        <rect class="c" width="3.352" height="3.352" transform="translate(165.969 467.06) rotate(90)"/>
        <rect class="b" width="3.352" height="3.352" transform="translate(161.295 467.06) rotate(90)"/>
        <rect class="b" width="3.352" height="3.352" transform="translate(156.621 467.06) rotate(90)"/>
        <rect class="b" width="3.352" height="3.352" transform="translate(151.947 467.06) rotate(90)"/>
        <rect class="a" width="3.352" height="3.352" transform="translate(147.273 467.06) rotate(90)"/>
        <rect class="c" width="3.352" height="3.352" transform="translate(165.969 471.793) rotate(90)"/>
        <rect class="b" width="3.352" height="3.352" transform="translate(161.295 471.793) rotate(90)"/>
        <rect class="b" width="3.352" height="3.352" transform="translate(156.621 471.793) rotate(90)"/>
        <rect class="b" width="3.352" height="3.352" transform="translate(151.947 471.793) rotate(90)"/>
        <rect class="a" width="3.352" height="3.352" transform="translate(147.273 471.793) rotate(90)"/>
        <rect class="c" width="3.352" height="3.352" transform="translate(165.969 476.399) rotate(90)"/>
        <rect class="b" width="3.352" height="3.352" transform="translate(161.295 476.399) rotate(90)"/>
        <rect class="b" width="3.352" height="3.352" transform="translate(156.621 476.399) rotate(90)"/>
        <rect class="b" width="3.352" height="3.352" transform="translate(151.947 476.399) rotate(90)"/>
        <rect class="a" width="3.352" height="3.352" transform="translate(147.273 476.399) rotate(90)"/>
        <rect class="c" width="3.352" height="3.352" transform="translate(165.969 481.073) rotate(90)"/>
        <rect class="b" width="3.352" height="3.352" transform="translate(161.295 481.073) rotate(90)"/>
        <rect class="b" width="3.352" height="3.352" transform="translate(156.621 481.073) rotate(90)"/>
        <rect class="b" width="3.352" height="3.352" transform="translate(151.947 481.073) rotate(90)"/>
        <rect class="a" width="3.352" height="3.352" transform="translate(147.273 481.073) rotate(90)"/>
        <rect class="c" width="3.352" height="3.352" transform="translate(161.295 485.747) rotate(90)"/>
        <rect class="b" width="3.352" height="3.352" transform="translate(156.621 485.747) rotate(90)"/>
        <rect class="b" width="3.352" height="3.352" transform="translate(151.947 485.747) rotate(90)"/>
        <rect class="a" width="3.352" height="3.352" transform="translate(147.273 485.747) rotate(90)"/>
        <rect class="b" width="3.352" height="3.352" transform="translate(156.621 490.481) rotate(90)"/>
        <rect class="a" width="3.352" height="3.352" transform="translate(151.947 490.481) rotate(90)"/>
        <path class="d"
              d="M284.914,506.138v-5.7h.927v4.756h2.75a5.111,5.111,0,0,0,5.444-5.351,5.221,5.221,0,0,0-5.426-5.37h-3.7v-.927H288.7a6.052,6.052,0,0,1,6.353,6.3,6.118,6.118,0,0,1-6.353,6.3Z"
              transform="translate(-102.953 -25.325)"/>
        <path class="d" d="M346.29,506.138l-4.174-11.252-4.193,11.252h-1.046l4.768-12.594h.943l4.75,12.594Z"
              transform="translate(-139.679 -25.325)"/>
        <path class="d"
              d="M401.693,506.138l-2.787-4.942h-3.93v4.942h-.927v-5.869h4.662a2.836,2.836,0,0,0,2.9-2.9,2.8,2.8,0,0,0-2.9-2.9H394.05v-.927h4.662a3.728,3.728,0,0,1,3.882,3.826,3.825,3.825,0,0,1-2.485,3.579l-.226.083,2.881,5.106Z"
              transform="translate(-180.087 -25.325)"/>
        <path class="d"
              d="M460.538,506.138l-4.217-5.852h-2.707v5.852h-.927V493.544h.927v5.815h2.544l3.9-5.815h1.176l-4.174,6.171,4.642,6.423Z"
              transform="translate(-221.53 -25.325)"/>
        <path class="d"
              d="M616.551,506.444v-9.823l-5.7,6.661-5.7-6.661v9.823H604.2V493.921l6.648,7.883,6.648-7.9v12.544Z"
              transform="translate(-328.615 -25.577)"/>
        <path class="d" d="M679.585,506.33v-.945h9.557v.945Zm0-5.833v-.927h8.87v.927Zm0-5.832v-.927h9.445v.927Z"
              transform="translate(-381.895 -25.462)"/>
        <rect class="d" width="0.927" height="12.592" transform="translate(265.428 468.276)"/>
        <path class="d" d="M512.527,506.33V493.738h.927V505.4h7.884v.927Z" transform="translate(-263.824 -25.462)"/>
    </g>
</svg>
